{
  "navigationBarTitleText": "八戒求才服务端",
  "enablePullDownRefresh": true,
  "usingComponents": {
    "zan-capsule": "../../assets/libs/zanui/capsule/index",
    "zan-actionsheet": "../../assets/libs/zanui/actionsheet/index",
    "zan-card": "../../assets/libs/zanui/card/index",
    "zan-row": "../../assets/libs/zanui/row/index",
    "zan-col": "../../assets/libs/zanui/col/index"
  }
}